<svg width="25" height="25" viewBox="0 0 25 25" fill="none" xmlns="http://www.w3.org/2000/svg">
<path d="M5.71875 25H0.632812V8.64844H5.71875V25ZM3.20312 6.40625C2.40104 6.40625 1.70833 6.11458 1.125 5.53125C0.541667 4.94792 0.25 4.25521 0.25 3.45312C0.25 2.65104 0.541667 1.95833 1.125 1.375C1.70833 0.791667 2.40104 0.5 3.20312 0.5C3.71354 0.5 4.1875 0.627604 4.625 0.882812C5.09896 1.13802 5.46354 1.5026 5.71875 1.97656C6.01042 2.41406 6.15625 2.90625 6.15625 3.45312C6.15625 3.96354 6.01042 4.45573 5.71875 4.92969C5.46354 5.36719 5.09896 5.73177 4.625 6.02344C4.1875 6.27865 3.71354 6.40625 3.20312 6.40625ZM24.75 25H19.6641V17.0156C19.6641 16.3958 19.6458 15.9036 19.6094 15.5391C19.5729 15.138 19.4818 14.7005 19.3359 14.2266C19.1901 13.7161 18.9167 13.3333 18.5156 13.0781C18.151 12.8229 17.6589 12.6953 17.0391 12.6953C15.8359 12.6953 15.0156 13.0781 14.5781 13.8438C14.1771 14.6094 13.9766 15.6302 13.9766 16.9062V25H8.89062V8.64844H13.8125V10.8906H13.8672C14.2318 10.1615 14.8333 9.54167 15.6719 9.03125C16.5104 8.48438 17.513 8.21094 18.6797 8.21094C19.9193 8.21094 20.9401 8.41146 21.7422 8.8125C22.5807 9.17708 23.2005 9.74219 23.6016 10.5078C24.0391 11.237 24.3307 12.0391 24.4766 12.9141C24.6589 13.7891 24.75 14.8281 24.75 16.0312V25Z" fill="#777A7C"/>
</svg>
