<svg width="29" height="20" viewBox="0 0 29 20" fill="none" xmlns="http://www.w3.org/2000/svg">
<path d="M14.75 5.59598C15.7125 5.59598 16.5292 5.99182 17.2 6.78348C17.9 7.57515 18.25 8.53646 18.25 9.66741C18.25 10.7984 17.9 11.7597 17.2 12.5513C16.5292 13.343 15.7125 13.7388 14.75 13.7388C13.7875 13.7388 12.9563 13.343 12.2562 12.5513C11.5854 11.7597 11.25 10.7984 11.25 9.66741C11.25 9.10193 11.3375 8.57887 11.5125 8.09821C11.7167 7.58929 11.9646 7.15104 12.2562 6.78348C12.5771 6.41592 12.9563 6.13318 13.3938 5.93527C13.8313 5.70908 14.2833 5.59598 14.75 5.59598ZM27.9187 1.05804C28.4729 1.28423 28.75 1.70833 28.75 2.33036V15.7746C28.75 16.029 28.6771 16.2693 28.5312 16.4955C28.4146 16.6935 28.2396 16.849 28.0063 16.9621C27.8021 17.0751 27.5833 17.1317 27.35 17.1317C27.2042 17.1317 27.0437 17.1034 26.8687 17.0469C25.6146 16.6793 24.2729 16.4955 22.8438 16.4955C21.0354 16.4955 18.3375 16.9338 14.75 17.8103C11.1625 18.6868 8.46458 19.125 6.65625 19.125C4.81875 19.125 3.12708 18.814 1.58125 18.192C1.02708 17.9658 0.75 17.5417 0.75 16.9196V3.47545C0.75 3.07961 0.88125 2.75446 1.14375 2.5C1.43542 2.24554 1.77083 2.1183 2.15 2.1183C2.29583 2.1183 2.45625 2.14658 2.63125 2.20312C3.88542 2.57068 5.22708 2.75446 6.65625 2.75446C8.46458 2.75446 11.1625 2.31622 14.75 1.43973C18.3375 0.563244 21.0354 0.125 22.8438 0.125C24.6812 0.125 26.3729 0.436012 27.9187 1.05804ZM26.65 12.4241V4.875C26.2125 4.81845 25.8042 4.67708 25.425 4.45089C25.0458 4.19643 24.7542 3.88542 24.55 3.51786C24.3458 3.12202 24.2292 2.69792 24.2 2.24554C23.7042 2.18899 23.2521 2.16071 22.8438 2.16071C21.2104 2.16071 18.6875 2.58482 15.275 3.43304C11.5125 4.3378 8.63958 4.79018 6.65625 4.79018C6.59792 4.79018 6.24792 4.77604 5.60625 4.74777C5.46042 5.36979 5.125 5.89286 4.6 6.31696C4.10417 6.74107 3.52083 6.95312 2.85 6.95312V14.4174C3.60833 14.4174 4.25 14.6719 4.775 15.1808C5.32917 15.6897 5.62083 16.3118 5.65 17.0469C5.97083 17.0751 6.30625 17.0893 6.65625 17.0893C8.28958 17.0893 10.8125 16.6652 14.225 15.817C17.9875 14.9122 20.8604 14.4598 22.8438 14.4598C23.1646 14.4598 23.6458 14.4881 24.2875 14.5446C24.3458 14.2619 24.4479 14.0074 24.5938 13.7812C24.7396 13.5268 24.9146 13.3147 25.1187 13.1451C25.3229 12.9472 25.5562 12.7917 25.8188 12.6786C26.0812 12.5372 26.3583 12.4524 26.65 12.4241Z" fill="#777A7C"/>
</svg>
