<svg width="108" height="53" viewBox="0 0 108 53" fill="none" xmlns="http://www.w3.org/2000/svg">
<g opacity="0.2">
<path d="M9.91941 40.0954H9.99061L13.2441 28.4452C13.6111 27.1416 14.3779 25.8325 15.802 26.1557C17.6808 26.5884 17.6808 27.3223 17.6808 27.9522C17.6808 28.374 17.5329 28.9053 17.2754 29.5735L11.957 46.9585C10.6753 50.4749 9.21283 52.3098 5.84977 52.3098C3.47261 52.3098 2.4867 51.187 2.4867 49.9491C2.4867 48.5798 4.07512 47.8896 5.49922 47.8896H6.04695C6.74257 47.8896 7.59703 47.5226 8.00235 45.9342L0.657277 30.9319C0.219092 29.705 0 29.1408 0 28.5438C0 27.1361 0.20266 26.802 1.75274 26.2159C2.83177 25.8051 4.16823 26.9882 4.49687 28.1549L9.91941 40.0954Z" fill="black"/>
<path d="M52.2734 28.5713C52.2734 26.9445 52.98 26.0791 54.4972 26.0791C55.9487 26.0791 56.7265 26.9445 56.7265 28.5713V29.4038H56.7922C57.6029 27.1636 59.5911 26.0791 61.9847 26.0791C66.0982 26.0791 69.7077 29.2943 69.7077 36.119C69.7077 41.1746 67.3141 45.907 62.1216 45.907C59.865 45.907 58.1725 44.932 57.2687 43.234H57.203V50.2779C57.203 52.0142 56.2226 52.9179 54.7382 52.9179C53.2539 52.9179 52.2734 52.0142 52.2734 50.2779V28.5713ZM63.0637 29.716C60.0896 29.716 58.9667 32.7669 58.9667 36.1026C58.9667 39.1151 59.9471 42.6534 63.0637 42.6096C66.3173 42.6096 67.1224 38.8358 67.1224 36.1026C67.1224 32.6464 65.7914 29.7927 63.0637 29.716Z" fill="black"/>
<path d="M41.6992 22.2997C41.6992 20.536 42.6687 19.6158 44.1421 19.6158C45.6155 19.6158 46.585 20.536 46.585 22.2997V44.3295C46.585 46.0932 45.6155 47.0079 44.1421 47.0079C42.6687 47.0079 41.6992 46.0877 41.6992 44.3295V22.2997Z" fill="black"/>
<path d="M24.713 37.7347C24.713 40.5939 26.285 42.6753 28.9525 42.6753C32.4086 42.6753 32.4086 40.0023 34.2655 40.0023C35.3664 40.0023 36.1497 41.1197 36.1497 42.1221C36.1497 45.392 31.7185 46.9147 28.9525 46.9147C22.544 46.9147 20.123 41.7879 20.123 37.0665C20.123 30.7512 23.3601 26.5117 28.7936 26.5117C34.0738 26.5117 37.0917 30.9319 37.0917 35.3904C37.0917 37.2472 36.6207 37.7292 35.0816 37.7292H24.713V37.7347ZM32.2717 34.8098C32.0033 32.0383 30.3163 30.0117 28.1254 30.0117C25.6661 30.0117 24.1817 31.874 23.6395 34.8098H32.2717Z" fill="black"/>
<path d="M107.519 9.58142C107.338 10.0141 107.091 10.3866 106.774 10.6988C106.456 11.011 106.089 11.2575 105.662 11.4382C105.24 11.619 104.786 11.7121 104.298 11.7121C103.811 11.7121 103.356 11.619 102.934 11.4382C102.512 11.2575 102.14 11.011 101.822 10.6988C101.505 10.3866 101.253 10.0141 101.066 9.58142C100.88 9.14872 100.787 8.68314 100.787 8.18471C100.787 7.69723 100.88 7.23713 101.066 6.8099C101.253 6.38267 101.505 6.01569 101.822 5.70349C102.14 5.39128 102.507 5.1448 102.934 4.96405C103.356 4.7833 103.811 4.69019 104.298 4.69019C104.786 4.69019 105.24 4.7833 105.662 4.96405C106.084 5.1448 106.456 5.39128 106.774 5.70349C107.091 6.01569 107.338 6.38267 107.519 6.8099C107.699 7.23713 107.787 7.69175 107.787 8.18471C107.787 8.68314 107.699 9.14872 107.519 9.58142ZM107.004 6.99613C106.85 6.62368 106.642 6.29504 106.385 6.02117C106.127 5.74731 105.821 5.52821 105.465 5.36937C105.109 5.20505 104.725 5.12837 104.314 5.12837C103.904 5.12837 103.52 5.21053 103.164 5.36937C102.808 5.52821 102.502 5.74731 102.239 6.02117C101.976 6.29504 101.768 6.62368 101.614 6.99613C101.461 7.37407 101.384 7.76843 101.384 8.17923C101.384 8.60646 101.461 9.0063 101.614 9.37876C101.768 9.75122 101.976 10.0799 102.239 10.3592C102.502 10.6385 102.814 10.8631 103.175 11.022C103.537 11.1808 103.92 11.263 104.331 11.263C104.731 11.263 105.109 11.1808 105.465 11.022C105.821 10.8631 106.122 10.644 106.385 10.3647C106.642 10.0908 106.85 9.76765 107.004 9.38972C107.157 9.01726 107.234 8.61742 107.234 8.19019C107.234 7.77391 107.157 7.37407 107.004 6.99613ZM105.3 10.2277C105.196 10.0908 105.092 9.76217 104.999 9.23088C104.944 8.96249 104.846 8.77078 104.703 8.66123C104.561 8.55169 104.353 8.49692 104.079 8.49692H103.602V10.2277H103.093V6.31147C103.274 6.28956 103.438 6.27313 103.591 6.25122C103.745 6.22931 103.92 6.21835 104.123 6.21835C104.397 6.21835 104.632 6.24574 104.829 6.30051C105.027 6.36076 105.18 6.42649 105.295 6.51413C105.536 6.6894 105.656 6.95779 105.656 7.30834C105.656 7.57673 105.58 7.79034 105.426 7.94918C105.273 8.10255 105.092 8.2121 104.879 8.27782V8.31069C105.24 8.37094 105.465 8.68862 105.558 9.26374C105.613 9.56499 105.656 9.78408 105.7 9.92649C105.744 10.0689 105.782 10.1675 105.826 10.2332H105.3V10.2277ZM104.895 6.86468C104.742 6.70584 104.462 6.62368 104.063 6.62368C103.958 6.62368 103.865 6.62368 103.794 6.63463C103.717 6.64011 103.657 6.64558 103.602 6.65654V8.12446H104.095C104.369 8.12446 104.61 8.06969 104.818 7.96014C105.027 7.85059 105.125 7.65889 105.125 7.3905C105.125 7.19879 105.048 7.02352 104.895 6.86468Z" fill="#C93218"/>
<path d="M89.5032 24.6275C88.8514 25.2848 89.4046 26.4789 89.4046 26.4789L94.3068 34.6674C94.3068 34.6674 95.112 35.7465 95.8076 35.7465C96.5087 35.7465 97.1988 35.1714 97.1988 35.1714L101.077 29.6283C101.077 29.6283 101.466 28.9272 101.477 28.3192C101.493 27.4483 100.178 27.2073 100.178 27.2073L90.9985 24.2606C90.9985 24.2606 90.1002 24.025 89.5032 24.6275Z" fill="black"/>
<path d="M89.0374 20.4976C89.5084 21.2918 90.8011 21.0618 90.8011 21.0618L99.9591 18.3834C99.9591 18.3834 101.208 17.874 101.383 17.2003C101.559 16.5211 101.175 15.705 101.175 15.705L96.7987 10.5508C96.7987 10.5508 96.4208 9.89904 95.6321 9.83331C94.7667 9.76211 94.2299 10.8083 94.2299 10.8083L89.0538 18.9476C89.0648 18.9585 88.6047 19.7691 89.0374 20.4976Z" fill="black"/>
<path d="M84.7108 17.3262C85.7898 17.0633 85.9596 15.4968 85.9596 15.4968L85.8884 2.46083C85.8884 2.46083 85.7241 0.850496 85.0011 0.417789C83.8673 -0.272352 83.5332 0.0891502 83.2045 0.138446L75.602 2.96474C75.602 2.96474 74.8571 3.21122 74.4682 3.83015C73.915 4.712 75.0324 5.99917 75.0324 5.99917L82.9361 16.7676C82.9361 16.7621 83.7194 17.5727 84.7108 17.3262Z" fill="black"/>
<path d="M82.8313 22.6008C82.8587 21.593 81.6263 20.9905 81.6263 20.9905L73.4542 16.8606C73.4542 16.8606 72.2437 16.3622 71.6576 16.7073C71.2085 16.9756 70.8086 17.4577 70.7703 17.8794L70.239 24.4303C70.239 24.4303 70.1568 25.5641 70.4526 26.0844C70.8689 26.8184 72.2382 26.309 72.2382 26.309L81.7797 24.2002C82.1467 23.9537 82.7985 23.9318 82.8313 22.6008Z" fill="black"/>
<path d="M85.2077 26.1392C84.3861 25.7175 83.4111 26.5884 83.4111 26.5884L77.0246 33.6212C77.0246 33.6212 76.2249 34.6948 76.433 35.3575C76.6247 35.9765 76.9424 36.2832 77.3861 36.5023L83.8 38.5289C83.8 38.5289 84.5778 38.6878 85.1693 38.518C86.0073 38.277 85.854 36.9679 85.854 36.9679L85.9964 27.4483C85.9854 27.4428 85.9526 26.5226 85.2077 26.1392Z" fill="black"/>
</g>
</svg>
