<svg width="35" height="34" viewBox="0 0 35 34" fill="none" xmlns="http://www.w3.org/2000/svg">
<path d="M10.6553 8.99646C10.5765 9.0996 10.4976 9.17696 10.4188 9.2801C9.65663 10.1568 10.0246 11.4461 10.5502 12.8643C12.1796 17.3253 16.7 21.7605 20.7473 23.8749C22.0876 24.5711 23.5331 24.6743 24.4004 23.9007C24.5055 23.8233 24.5843 23.746 24.6895 23.6428C25.5568 22.8692 26.8708 22.2762 28.0798 22.7661C28.8156 23.0755 29.4727 23.385 30.5502 23.7975C32.1008 24.4164 33.2046 25.9893 32.9681 27.4591C32.679 29.161 31.654 30.9402 31.1284 31.8685C30.5239 32.9515 28.7631 33.2867 26.9234 32.7452C12.1533 28.3874 5.37279 19.5429 1.2992 7.08831C0.721017 5.30908 0.983829 3.58143 2.06136 2.93679C2.9812 2.39528 4.50551 1.0802 6.4766 1.00285C8.02719 0.951275 9.42009 1.59592 10.3399 3.29779C10.7079 3.994 10.9444 4.79337 11.2861 5.51537C11.838 6.67573 11.4175 8.11974 10.6553 8.99646Z" stroke="white" stroke-width="2" stroke-miterlimit="10"/>
</svg>
